…
For a detailed explanation of all those elements, see the [**loo** reference manual](https://CRAN.R-project.org/package=loo/loo.pdf) ([Vehtari et al., 2020](#ref-loo2020RM)). For our purposes, we’ll focus on the `pareto_k`. Here’s a glimpse of what it contains for the `b1` model.

``` r
loo_b1$diagnostics$pareto_k %>% as_tibble()
```

    ## # A tibble: 100 × 1
    ##        value
    ##        <dbl>
    ##  1  1.00    
    ##  2  0.701   
    ##  3  0.0754  
    ##  4  0.0984  
    ##  5  0.0428  
    ##  6  0.00891 
    ##  7 -0.0465  
    ##  8 -0.000989
    ##  9  0.0176  
    ## 10  0.0110  
    ## # … with 90 more rows
…
