…
We have a 3-row nested tibble. The first column, `name` is just a character vector with the names of the fits. The next column isn’t necessary, but it nicely explicates the main difference in the models: the prior we used on the intercept. It’s in the `map()` functions within the two `mutate()`lines where all the magic happens. With the first, we used the `get()` function to snatch up the **brms** fit objects matching the names in the `name` column. In the second, we used the `as_draws_df()` function to extract the posterior draws from each of the fits saved in `fit`. Do you see how each for in the `draws` column contains an entire `\(4,000 \times 3\)` data frame? That’s why we refer to this as a nested tibble. We have data frames compressed within data frames. If you’d like to access the data within the `draws` column, just `unnest()`.

``` r
draws %>% 
  select(-fit) %>% 
  unnest(draws)
```

    ## # A tibble: 12,000 × 9
    ##    name  prior         b_Intercept sigma lprior  lp__ .chain .iteration .draw
    ##    <chr> <chr>               <dbl> <dbl>  <dbl> <dbl>  <int>      <int> <int>
    ##  1 fit1  normal(0, 10)      0.110  0.944  -4.54 -203.      1          1     1
    ##  2 fit1  normal(0, 10)      0.0711 0.758  -4.51 -207.      1          2     2
    ##  3 fit1  normal(0, 10)      0.0711 0.758  -4.51 -207.      1          3     3
    ##  4 fit1  normal(0, 10)     -0.0189 0.913  -4.53 -202.      1          4     4
    ##  5 fit1  normal(0, 10)     -0.108  0.966  -4.54 -204.      1          5     5
    ##  6 fit1  normal(0, 10)      0.0435 0.865  -4.52 -202.      1          6     6
    ##  7 fit1  normal(0, 10)      0.0486 0.863  -4.52 -202.      1          7     7
    ##  8 fit1  normal(0, 10)      0.0217 0.911  -4.53 -202.      1          8     8
    ##  9 fit1  normal(0, 10)      0.0244 0.880  -4.53 -202.      1          9     9
    ## 10 fit1  normal(0, 10)     -0.0497 0.860  -4.52 -203.      1         10    10
    ## # … with 11,990 more rows
…
